waves/multiplier_wallace.vcd
$date
	Sun Nov 16 20:48:49 2025
$end
$version
	Icarus Verilog
$end
$timescale
	1ps
$end
$scope module tb_multiplier_wallace $end
$var wire 16 ! product [15:0] $end
$var reg 8 " a [7:0] $end
$var reg 8 # b [7:0] $end
$scope module uut $end
$var wire 8 $ a [7:0] $end
$var wire 8 % b [7:0] $end
$var wire 1 & s32 $end
$var wire 1 ' s31 $end
$var wire 1 ( s24 $end
$var wire 1 ) s23 $end
$var wire 1 * s22 $end
$var wire 1 + s21 $end
$var wire 1 , s16 $end
$var wire 1 - s15 $end
$var wire 1 . s14 $end
$var wire 1 / s13 $end
$var wire 1 0 s12 $end
$var wire 1 1 s11 $end
$var wire 16 2 rowB [15:0] $end
$var wire 16 3 rowA [15:0] $end
$var wire 16 4 product [15:0] $end
$var wire 1 5 c32 $end
$var wire 1 6 c31 $end
$var wire 1 7 c24 $end
$var wire 1 8 c23 $end
$var wire 1 9 c22 $end
$var wire 1 : c21 $end
$var wire 1 ; c16 $end
$var wire 1 < c15 $end
$var wire 1 = c14 $end
$var wire 1 > c13 $end
$var wire 1 ? c12 $end
$var wire 1 @ c11 $end
$scope begin genblk1[0] $end
$var parameter 2 A i $end
$scope begin genblk1[0] $end
$var parameter 2 B j $end
$upscope $end
$scope begin genblk1[1] $end
$var parameter 2 C j $end
$upscope $end
$scope begin genblk1[2] $end
$var parameter 3 D j $end
$upscope $end
$scope begin genblk1[3] $end
$var parameter 3 E j $end
$upscope $end
$scope begin genblk1[4] $end
$var parameter 4 F j $end
$upscope $end
$scope begin genblk1[5] $end
$var parameter 4 G j $end
$upscope $end
$scope begin genblk1[6] $end
$var parameter 4 H j $end
$upscope $end
$scope begin genblk1[7] $end
$var parameter 4 I j $end
$upscope $end
$upscope $end
$scope begin genblk1[1] $end
$var parameter 2 J i $end
$scope begin genblk1[0] $end
$var parameter 2 K j $end
$upscope $end
$scope begin genblk1[1] $end
$var parameter 2 L j $end
$upscope $end
$scope begin genblk1[2] $end
$var parameter 3 M j $end
$upscope $end
$scope begin genblk1[3] $end
$var parameter 3 N j $end
$upscope $end
$scope begin genblk1[4] $end
$var parameter 4 O j $end
$upscope $end
$scope begin genblk1[5] $end
$var parameter 4 P j $end
$upscope $end
$scope begin genblk1[6] $end
$var parameter 4 Q j $end
$upscope $end
$scope begin genblk1[7] $end
$var parameter 4 R j $end
$upscope $end
$upscope $end
$scope begin genblk1[2] $end
$var parameter 3 S i $end
$scope begin genblk1[0] $end
$var parameter 2 T j $end
$upscope $end
$scope begin genblk1[1] $end
$var parameter 2 U j $end
$upscope $end
$scope begin genblk1[2] $end
$var parameter 3 V j $end
$upscope $end
$scope begin genblk1[3] $end
$var parameter 3 W j $end
$upscope $end
$scope begin genblk1[4] $end
$var parameter 4 X j $end
$upscope $end
$scope begin genblk1[5] $end
$var parameter 4 Y j $end
$upscope $end
$scope begin genblk1[6] $end
$var parameter 4 Z j $end
$upscope $end
$scope begin genblk1[7] $end
$var parameter 4 [ j $end
$upscope $end
$upscope $end
$scope begin genblk1[3] $end
$var parameter 3 \ i $end
$scope begin genblk1[0] $end
$var parameter 2 ] j $end
$upscope $end
$scope begin genblk1[1] $end
$var parameter 2 ^ j $end
$upscope $end
$scope begin genblk1[2] $end
$var parameter 3 _ j $end
$upscope $end
$scope begin genblk1[3] $end
$var parameter 3 ` j $end
$upscope $end
$scope begin genblk1[4] $end
$var parameter 4 a j $end
$upscope $end
$scope begin genblk1[5] $end
$var parameter 4 b j $end
$upscope $end
$scope begin genblk1[6] $end
$var parameter 4 c j $end
$upscope $end
$scope begin genblk1[7] $end
$var parameter 4 d j $end
$upscope $end
$upscope $end
$scope begin genblk1[4] $end
$var parameter 4 e i $end
$scope begin genblk1[0] $end
$var parameter 2 f j $end
$upscope $end
$scope begin genblk1[1] $end
$var parameter 2 g j $end
$upscope $end
$scope begin genblk1[2] $end
$var parameter 3 h j $end
$upscope $end
$scope begin genblk1[3] $end
$var parameter 3 i j $end
$upscope $end
$scope begin genblk1[4] $end
$var parameter 4 j j $end
$upscope $end
$scope begin genblk1[5] $end
$var parameter 4 k j $end
$upscope $end
$scope begin genblk1[6] $end
$var parameter 4 l j $end
$upscope $end
$scope begin genblk1[7] $end
$var parameter 4 m j $end
$upscope $end
$upscope $end
$scope begin genblk1[5] $end
$var parameter 4 n i $end
$scope begin genblk1[0] $end
$var parameter 2 o j $end
$upscope $end
$scope begin genblk1[1] $end
$var parameter 2 p j $end
$upscope $end
$scope begin genblk1[2] $end
$var parameter 3 q j $end
$upscope $end
$scope begin genblk1[3] $end
$var parameter 3 r j $end
$upscope $end
$scope begin genblk1[4] $end
$var parameter 4 s j $end
$upscope $end
$scope begin genblk1[5] $end
$var parameter 4 t j $end
$upscope $end
$scope begin genblk1[6] $end
$var parameter 4 u j $end
$upscope $end
$scope begin genblk1[7] $end
$var parameter 4 v j $end
$upscope $end
$upscope $end
$scope begin genblk1[6] $end
$var parameter 4 w i $end
$scope begin genblk1[0] $end
$var parameter 2 x j $end
$upscope $end
$scope begin genblk1[1] $end
$var parameter 2 y j $end
$upscope $end
$scope begin genblk1[2] $end
$var parameter 3 z j $end
$upscope $end
$scope begin genblk1[3] $end
$var parameter 3 { j $end
$upscope $end
$scope begin genblk1[4] $end
$var parameter 4 | j $end
$upscope $end
$scope begin genblk1[5] $end
$var parameter 4 } j $end
$upscope $end
$scope begin genblk1[6] $end
$var parameter 4 ~ j $end
$upscope $end
$scope begin genblk1[7] $end
$var parameter 4 !" j $end
$upscope $end
$upscope $end
$scope begin genblk1[7] $end
$var parameter 4 "" i $end
$scope begin genblk1[0] $end
$var parameter 2 #" j $end
$upscope $end
$scope begin genblk1[1] $end
$var parameter 2 $" j $end
$upscope $end
$scope begin genblk1[2] $end
$var parameter 3 %" j $end
$upscope $end
$scope begin genblk1[3] $end
$var parameter 3 &" j $end
$upscope $end
$scope begin genblk1[4] $end
$var parameter 4 '" j $end
$upscope $end
$scope begin genblk1[5] $end
$var parameter 4 (" j $end
$upscope $end
$scope begin genblk1[6] $end
$var parameter 4 )" j $end
$upscope $end
$scope begin genblk1[7] $end
$var parameter 4 *" j $end
$upscope $end
$upscope $end
$scope module FA11 $end
$var wire 1 @ cout $end
$var wire 1 1 sum $end
$var wire 1 +" cin $end
$var wire 1 ," b $end
$var wire 1 -" a $end
$upscope $end
$scope module FA12 $end
$var wire 1 ? cout $end
$var wire 1 0 sum $end
$var wire 1 ." cin $end
$var wire 1 /" b $end
$var wire 1 0" a $end
$upscope $end
$scope module FA13 $end
$var wire 1 > cout $end
$var wire 1 / sum $end
$var wire 1 1" cin $end
$var wire 1 2" b $end
$var wire 1 3" a $end
$upscope $end
$scope module FA14 $end
$var wire 1 = cout $end
$var wire 1 . sum $end
$var wire 1 4" cin $end
$var wire 1 5" b $end
$var wire 1 6" a $end
$upscope $end
$scope module FA15 $end
$var wire 1 < cout $end
$var wire 1 - sum $end
$var wire 1 7" cin $end
$var wire 1 8" b $end
$var wire 1 9" a $end
$upscope $end
$scope module FA16 $end
$var wire 1 ; cout $end
$var wire 1 , sum $end
$var wire 1 :" cin $end
$var wire 1 ;" b $end
$var wire 1 <" a $end
$upscope $end
$scope module FA21 $end
$var wire 1 1 a $end
$var wire 1 @ cin $end
$var wire 1 : cout $end
$var wire 1 + sum $end
$var wire 1 =" b $end
$upscope $end
$scope module FA22 $end
$var wire 1 0 a $end
$var wire 1 ? cin $end
$var wire 1 9 cout $end
$var wire 1 * sum $end
$var wire 1 >" b $end
$upscope $end
$scope module FA23 $end
$var wire 1 / a $end
$var wire 1 > cin $end
$var wire 1 8 cout $end
$var wire 1 ) sum $end
$var wire 1 ?" b $end
$upscope $end
$scope module FA24 $end
$var wire 1 . a $end
$var wire 1 = cin $end
$var wire 1 7 cout $end
$var wire 1 ( sum $end
$var wire 1 @" b $end
$upscope $end
$scope module FA31 $end
$var wire 1 + a $end
$var wire 1 : cin $end
$var wire 1 6 cout $end
$var wire 1 ' sum $end
$var wire 1 A" b $end
$upscope $end
$scope module FA32 $end
$var wire 1 * a $end
$var wire 1 9 cin $end
$var wire 1 5 cout $end
$var wire 1 & sum $end
$var wire 1 B" b $end
$upscope $end
$upscope $end
$upscope $end
$enddefinitions $end
$comment Show the parameter values. $end
$dumpall
b111 *"
b110 )"
b101 ("
b100 '"
b11 &"
b10 %"
b1 $"
b0 #"
b111 ""
b111 !"
b110 ~
b101 }
b100 |
b11 {
b10 z
b1 y
b0 x
b110 w
b111 v
b110 u
b101 t
b100 s
b11 r
b10 q
b1 p
b0 o
b101 n
b111 m
b110 l
b101 k
b100 j
b11 i
b10 h
b1 g
b0 f
b100 e
b111 d
b110 c
b101 b
b100 a
b11 `
b10 _
b1 ^
b0 ]
b11 \
b111 [
b110 Z
b101 Y
b100 X
b11 W
b10 V
b1 U
b0 T
b10 S
b111 R
b110 Q
b101 P
b100 O
b11 N
b10 M
b1 L
b0 K
b1 J
b111 I
b110 H
b101 G
b100 F
b11 E
b10 D
b1 C
b0 B
b0 A
$end
#0
$dumpvars
0B"
0A"
0@"
0?"
0>"
0="
0<"
0;"
0:"
09"
08"
07"
06"
05"
04"
03"
02"
01"
00"
0/"
0."
0-"
0,"
0+"
0@
0?
0>
0=
0<
0;
0:
09
08
07
06
05
b0 4
b0 3
b0 2
01
00
0/
0.
0-
0,
0+
0*
0)
0(
0'
0&
b0 %
b0 $
b0 #
b0 "
b0 !
$end
#10000
1'
1&
1+
1*
1)
10
1@
01
1/
b11111 !
b11111 4
b11111 3
1-"
1/"
1+"
11"
b111 #
b111 %
b101 "
b101 $
#20000
06
05
1'
b100000 2
17
0:
1)
19
0@
0*
0(
11
10
1/
1.
b111100 !
b111100 4
b11100 3
0-"
1,"
0/"
12"
0+"
1."
01"
14"
1>"
1@"
b1110 #
b1110 %
b1010 "
b1010 $
#30000
0'
1&
0+
05
b0 2
07
1>
09
1(
0/
01
1*
10
10"
04"
0@"
b111011 !
b111011 4
b111011 3
13"
0,"
15"
0."
0>"
b11 #
b11 %
b11001 "
b11001 $
#40000
16
1+
1@
0>
1<
1?
1*
1)
08
b1001100 2
15
0'
0&
00
1/
1,
b11111110 !
b11111110 4
b10110010 3
03"
1+"
17"
1A"
00"
1,"
1/"
02"
18"
1."
11"
1:"
1B"
b10110 #
b10110 %
b110111 "
b110111 $
#50000
0(
18
0@
0+
0:
0?
0*
09
0<
06
b10000 2
05
0)
0.
0'
0&
01
00
b10010000 !
b10010000 4
b10000000 3
0-
0/"
08"
1?"
0,"
05"
0+"
0."
07"
0A"
0B"
b1100 #
b1100 %
b1100100 "
b1100100 $
#60000
1'
1&
1+
1(
1*
b0 2
08
11
1.
1-
1)
10
1-"
16"
19"
01"
0:"
0?"
b11111111 !
b11111111 4
b11111111 3
10"
13"
1<"
b1 #
b1 %
b11111111 "
b11111111 $
#70000
1:
19
18
17
16
15
1@
1?
1>
1=
1<
b11111100 2
1;
1+
1*
1)
1(
1'
1&
11
10
1/
1.
1-
b111111001 !
b111111001 4
b11111101 3
1,
1,"
1/"
12"
15"
18"
1;"
1+"
1."
11"
14"
17"
1:"
1="
1>"
1?"
1@"
1A"
1B"
b11111111 #
b11111111 %
